com\med\med\utils\MedicationDto.class
com\med\med\exceptions\GenericException.class
com\example\grpc\User$1.class
com\example\grpc\DisplayRequest$1.class
com\example\grpc\MedGrpc$1.class
com\example\grpc\UserServiceGrpc$1.class
com\example\grpc\StatusResponse$1.class
com\example\grpc\UserServiceGrpc$UserServiceBlockingStub.class
com\example\grpc\MedGrpc$Builder.class
com\example\grpc\UserServiceGrpc$UserServiceBaseDescriptorSupplier.class
com\med\med\confing\WebSecurity$UserServiceImpl.class
com\example\grpc\MedStatus$Builder.class
com\example\grpc\UserServiceGrpc$UserServiceMethodDescriptorSupplier.class
com\example\grpc\UserServiceGrpc$UserServiceImplBase.class
com\ProjectApplication.class
com\example\grpc\MedStatus.class
com\example\server\MedRepo.class
com\med\med\models\Medication.class
com\example\server\GrpcServer.class
com\med\med\controller\UserController.class
com\example\grpc\MedGrpcOrBuilder.class
com\example\grpc\UserServiceGrpc$UserServiceFutureStub.class
com\example\grpc\MedStatusOrBuilder.class
com\example\grpc\StatusResponseOrBuilder.class
com\example\grpc\UserServiceGrpc$UserServiceStub.class
com\example\grpc\DisplayResponse$1.class
com\example\grpc\DisplayResponse.class
com\med\med\utils\RegisterDto.class
com\med\med\controller\MedicationController.class
com\example\grpc\StatusResponse$Builder.class
com\example\grpc\DisplayRequest$Builder.class
com\example\grpc\DisplayResponseOrBuilder.class
com\example\grpc\MedStatus$1.class
com\med\med\models\User.class
com\med\med\models\data\UserDao.class
com\example\grpc\DisplayRequest.class
com\example\grpc\UserServiceGrpc$MethodHandlers.class
com\example\server\UserService.class
com\example\grpc\User.class
com\example\grpc\DisplayRequestOrBuilder.class
com\example\grpc\UserServiceGrpc$UserServiceFileDescriptorSupplier.class
com\med\med\models\Role.class
com\example\grpc\DisplayResponse$Builder.class
com\med\med\confing\WebSecurity$1.class
com\med\med\models\data\MedicationDao.class
com\med\med\confing\WebSecurity$UserDetailsImpl.class
com\med\med\confing\WebSecurity.class
com\med\med\services\MedService.class
com\example\grpc\MedGrpc.class
com\example\server\ConnectionManager.class
com\example\grpc\UserServiceGrpc.class
com\example\grpc\StatusResponse.class
