C:\Users\Bogdan\IdeaProjects\medPlatform\src\main\java\com\med\med\controller\MedicationController.java
C:\Users\Bogdan\IdeaProjects\medPlatform\src\main\java\com\med\med\models\data\MedicationDao.java
C:\Users\Bogdan\IdeaProjects\medPlatform\src\main\java\com\med\med\utils\MedicationDto.java
C:\Users\Bogdan\IdeaProjects\medPlatform\src\main\java\com\example\grpc\DisplayResponse.java
C:\Users\Bogdan\IdeaProjects\medPlatform\src\main\java\com\med\med\confing\WebSecurity.java
C:\Users\Bogdan\IdeaProjects\medPlatform\src\main\java\com\med\med\exceptions\GenericException.java
C:\Users\Bogdan\IdeaProjects\medPlatform\src\main\java\com\med\med\models\data\UserDao.java
C:\Users\Bogdan\IdeaProjects\medPlatform\src\main\java\com\example\server\MedRepo.java
C:\Users\Bogdan\IdeaProjects\medPlatform\src\main\java\com\example\grpc\MedGrpcOrBuilder.java
C:\Users\Bogdan\IdeaProjects\medPlatform\src\main\java\com\example\grpc\UserServiceGrpc.java
C:\Users\Bogdan\IdeaProjects\medPlatform\src\main\java\com\med\med\models\Medication.java
C:\Users\Bogdan\IdeaProjects\medPlatform\src\main\java\com\med\med\controller\UserController.java
C:\Users\Bogdan\IdeaProjects\medPlatform\src\main\java\com\example\server\ConnectionManager.java
C:\Users\Bogdan\IdeaProjects\medPlatform\src\main\java\com\example\server\UserService.java
C:\Users\Bogdan\IdeaProjects\medPlatform\src\main\java\com\med\med\utils\RegisterDto.java
C:\Users\Bogdan\IdeaProjects\medPlatform\src\main\java\com\example\grpc\DisplayRequest.java
C:\Users\Bogdan\IdeaProjects\medPlatform\src\main\java\com\example\grpc\MedGrpc.java
C:\Users\Bogdan\IdeaProjects\medPlatform\src\main\java\com\example\grpc\MedStatusOrBuilder.java
C:\Users\Bogdan\IdeaProjects\medPlatform\src\main\java\com\ProjectApplication.java
C:\Users\Bogdan\IdeaProjects\medPlatform\src\main\java\com\example\grpc\DisplayResponseOrBuilder.java
C:\Users\Bogdan\IdeaProjects\medPlatform\src\main\java\com\example\grpc\MedStatus.java
C:\Users\Bogdan\IdeaProjects\medPlatform\src\main\java\com\example\grpc\User.java
C:\Users\Bogdan\IdeaProjects\medPlatform\src\main\java\com\med\med\services\MedService.java
C:\Users\Bogdan\IdeaProjects\medPlatform\src\main\java\com\example\grpc\DisplayRequestOrBuilder.java
C:\Users\Bogdan\IdeaProjects\medPlatform\src\main\java\com\example\server\GrpcServer.java
C:\Users\Bogdan\IdeaProjects\medPlatform\src\main\java\com\med\med\cors\CORSFilter.java
C:\Users\Bogdan\IdeaProjects\medPlatform\src\main\java\com\med\med\models\User.java
C:\Users\Bogdan\IdeaProjects\medPlatform\src\main\java\com\med\med\models\Role.java
